…
## What is mean total number of steps taken per day?


```r
dailysteps <- activity %>% group_by(date) %>% summarize(steps = sum(steps))
dailysteps
```

```
## # A tibble: 61 x 2
##    date       steps
##    <date>     <dbl>
##  1 2012-10-01    NA
##  2 2012-10-02   126
##  3 2012-10-03 11352
##  4 2012-10-04 12116
##  5 2012-10-05 13294
##  6 2012-10-06 15420
##  7 2012-10-07 11015
##  8 2012-10-08    NA
##  9 2012-10-09 12811
## 10 2012-10-10  9900
## # … with 51 more rows
```
…
```
## [1] 10765
```

## What is the average daily activity pattern?


```r
intsteps <- activity %>% group_by(interval) %>% summarise(mean_steps = mean(steps, na.rm = T))
intsteps
```

```
## # A tibble: 288 x 2
##    interval mean_steps
##       <dbl>      <dbl>
##  1        0     1.72  
##  2        5     0.340 
##  3       10     0.132 
##  4       15     0.151 
##  5       20     0.0755
##  6       25     2.09  
##  7       30     0.528 
##  8       35     0.868 
##  9       40     0     
## 10       45     1.47  
## # … with 278 more rows
```
…
```r
activitynoNA <- activitynoNA %>% mutate(DayClass = as.factor(ifelse(wday(ymd(date)) %in% c(1,7), "weekend", "weekday"))) %>% select(steps, date, interval, DayClass)
```

Now let's create a summary with the mean steps, grouped by weekday/weekend and interval.


```r
wdayIntervalSum <- activitynoNA %>% group_by(DayClass, interval) %>% summarise(mean_steps = mean(steps))
wdayIntervalSum
```

```
## # A tibble: 576 x 3
## # Groups:   DayClass [2]
##    DayClass interval mean_steps
##    <fct>       <dbl>      <dbl>
##  1 weekday         0     2.25  
##  2 weekday         5     0.445 
##  3 weekday        10     0.173 
##  4 weekday        15     0.198 
##  5 weekday        20     0.0990
##  6 weekday        25     1.59  
##  7 weekday        30     0.693 
##  8 weekday        35     1.14  
##  9 weekday        40     0     
## 10 weekday        45     1.80  
## # … with 566 more rows
```
…
